{
 "SoundBanksInfo": {
  "Platform": "Windows",
  "BasePlatform": "Windows",
  "SchemaVersion": "12",
  "SoundbankVersion": "135",
  "RootPaths": {
   "ProjectRoot": "F:\\Unreal Projects\\Overdrinked\\Overdrinked_WwiseProject\\",
   "SourceFilesRoot": "F:\\Unreal Projects\\Overdrinked\\Overdrinked_WwiseProject\\.cache\\Windows\\",
   "SoundBanksRoot": "F:\\Unreal Projects\\Overdrinked\\Overdrinked_WwiseProject\\GeneratedSoundBanks\\Windows\\",
   "ExternalSourcesInputFile": "",
   "ExternalSourcesOutputRoot": "F:\\Unreal Projects\\Overdrinked\\Overdrinked_WwiseProject\\GeneratedSoundBanks\\Windows"
  },
  "SoundBanks": [
   {
    "Id": "1355168291",
    "GUID": "{701ECBBD-9C7B-4030-8CDB-749EE5D1C7B9}",
    "Language": "SFX",
    "ObjectPath": "Init",
    "ShortName": "Init",
    "Path": "Init.bnk",
    "IncludedAuxBusses": [
     {
      "Id": "2102949344",
      "Name": "Cycle_1_Reverb",
      "ObjectPath": "\\Master-Mixer Hierarchy\\Default Work Unit\\Master Audio Bus\\Cycle_1_Reverb",
      "GUID": "{0A1FC996-1F9D-4F9D-85F4-80D606EBAB6B}"
     },
     {
      "Id": "2362224979",
      "Name": "Main_Menu_Reverb",
      "ObjectPath": "\\Master-Mixer Hierarchy\\Default Work Unit\\Master Audio Bus\\Main_Menu_Reverb",
      "GUID": "{21237077-06CA-4AFF-9990-005F43171F34}"
     }
    ],
    "GameParameters": [
     {
      "Id": "137050204",
      "Name": "dialogue_sc",
      "ObjectPath": "\\Game Parameters\\Mix\\dialogue_sc",
      "GUID": "{5B7DAE4D-454E-4016-A3E6-671C8BA3D417}"
     },
     {
      "Id": "213475909",
      "Name": "sfx_bus",
      "ObjectPath": "\\Game Parameters\\Mix\\sfx_bus",
      "GUID": "{F128A196-1652-405A-893A-4D27CC98F826}"
     },
     {
      "Id": "573466488",
      "Name": "dialogue_bus",
      "ObjectPath": "\\Game Parameters\\Mix\\dialogue_bus",
      "GUID": "{D9C24CCB-3515-4B31-9C51-FB0204304B9D}"
     },
     {
      "Id": "2680856269",
      "Name": "music_bus",
      "ObjectPath": "\\Game Parameters\\Mix\\music_bus",
      "GUID": "{F8F22ECD-6299-4910-9CE6-144072975B1A}"
     },
     {
      "Id": "3923732995",
      "Name": "player_sc",
      "ObjectPath": "\\Game Parameters\\Mix\\player_sc",
      "GUID": "{1D216162-9DCC-4273-B2E7-F1F02EED5163}"
     },
     {
      "Id": "4179668880",
      "Name": "master_volume",
      "ObjectPath": "\\Game Parameters\\Mix\\master_volume",
      "GUID": "{37BCC0CD-8010-4243-8415-17AB6551A8DA}"
     }
    ]
   }
  ]
 }
}