{
 "SoundBanksInfo": {
  "Platform": "Windows",
  "BasePlatform": "Windows",
  "SchemaVersion": "12",
  "SoundbankVersion": "135",
  "RootPaths": {
   "ProjectRoot": "F:\\Unreal Projects\\Overdrinked\\Overdrinked_WwiseProject\\",
   "SourceFilesRoot": "F:\\Unreal Projects\\Overdrinked\\Overdrinked_WwiseProject\\.cache\\Windows\\",
   "SoundBanksRoot": "F:\\Unreal Projects\\Overdrinked\\Overdrinked_WwiseProject\\GeneratedSoundBanks\\Windows\\",
   "ExternalSourcesInputFile": "",
   "ExternalSourcesOutputRoot": "F:\\Unreal Projects\\Overdrinked\\Overdrinked_WwiseProject\\GeneratedSoundBanks\\Windows"
  },
  "SoundBanks": [
   {
    "Id": "1877206872",
    "GUID": "{6FE3E758-E758-1758-5858-585858585858}",
    "Language": "SFX",
    "ObjectPath": "\\SoundBanks\\Default Work Unit\\SB_B0B73A6ABF42746089D5489B11E8253B",
    "ShortName": "SB_B0B73A6ABF42746089D5489B11E8253B",
    "Path": "SB_B0B73A6ABF42746089D5489B11E8253B.bnk",
    "IncludedEvents": [
     {
      "Id": "335636031",
      "Name": "freekus_closing_status",
      "ObjectPath": "\\Events\\Default Work Unit\\Dialogue\\freekus_closing_status",
      "GUID": "{0661253F-BFA8-4F1D-BF37-1DD6D3FF1A7F}",
      "DurationType": "OneShot",
      "DurationMin": "22.201708",
      "DurationMax": "25.162947",
      "ExcludedMemoryFiles": [
       {
        "Id": "51200217",
        "Language": "SFX",
        "ShortName": "S_Freekus_ClosingUpShop_BadNight_Mono.wav",
        "Path": "SFX\\S_Freekus_ClosingUpShop_BadNight_Mono_1BA0323B.wem"
       },
       {
        "Id": "887864976",
        "Language": "SFX",
        "ShortName": "S_Freekus_ClosingUpShop_GoodNight_Mono.wav",
        "Path": "SFX\\S_Freekus_ClosingUpShop_GoodNight_Mono_7F8B62C7.wem"
       }
      ],
      "DefaultSwitchValue": "{CFB10247-AD4B-486F-A009-1247B0E511B5}",
      "SwitchContainers": [
       {
        "SwitchValue": "{228D2BFC-1971-4052-B221-171320AD39A0}",
        "Media": [
         {
          "Id": "51200217"
         }
        ]
       },
       {
        "SwitchValue": "{CFB10247-AD4B-486F-A009-1247B0E511B5}",
        "Media": [
         {
          "Id": "887864976"
         }
        ]
       }
      ]
     },
     {
      "Id": "2957636878",
      "Name": "freekus_delivery_status",
      "ObjectPath": "\\Events\\Default Work Unit\\Dialogue\\freekus_delivery_status",
      "GUID": "{93B3D992-0244-41CC-89BC-FB82F6518AD7}",
      "DurationType": "OneShot",
      "DurationMin": "8.500000",
      "DurationMax": "10.889438",
      "ExcludedMemoryFiles": [
       {
        "Id": "450100350",
        "Language": "SFX",
        "ShortName": "S_Freekus_PerfectDelivery_Mono.wav",
        "Path": "SFX\\S_Freekus_PerfectDelivery_Mono_10C4C929.wem"
       },
       {
        "Id": "1042651065",
        "Language": "SFX",
        "ShortName": "S_Freekus_PoorDelivery_Mono.wav",
        "Path": "SFX\\S_Freekus_PoorDelivery_Mono_10C4C929.wem"
       }
      ],
      "DefaultSwitchValue": "{28AC777C-77F1-40EF-80B0-214A55E1C432}",
      "SwitchContainers": [
       {
        "SwitchValue": "{28AC777C-77F1-40EF-80B0-214A55E1C432}",
        "Media": [
         {
          "Id": "450100350"
         }
        ]
       },
       {
        "SwitchValue": "{9260F016-03E3-4C86-BB55-039FEA268312}",
        "Media": [
         {
          "Id": "1042651065"
         }
        ]
       }
      ]
     },
     {
      "Id": "2089248438",
      "Name": "freekus_general_bar_status",
      "ObjectPath": "\\Events\\Default Work Unit\\Dialogue\\freekus_general_bar_status",
      "GUID": "{5D0A5701-FDF6-4A6B-8BA0-7698E3254C12}",
      "DurationType": "OneShot",
      "DurationMin": "9.683437",
      "DurationMax": "10.417042",
      "ExcludedMemoryFiles": [
       {
        "Id": "82436253",
        "Language": "SFX",
        "ShortName": "S_Freekus_GeneraHappyBar_Mono.wav",
        "Path": "SFX\\S_Freekus_GeneraHappyBar_Mono_10C4C929.wem"
       },
       {
        "Id": "83103685",
        "Language": "SFX",
        "ShortName": "S_Freekus_GeneralUpsetBar_Mono.wav",
        "Path": "SFX\\S_Freekus_GeneralUpsetBar_Mono_10C4C929.wem"
       }
      ],
      "DefaultSwitchValue": "{315005F3-246E-4EC7-BC83-8CC531B81E71}",
      "SwitchContainers": [
       {
        "SwitchValue": "{315005F3-246E-4EC7-BC83-8CC531B81E71}",
        "Media": [
         {
          "Id": "82436253"
         }
        ]
       },
       {
        "SwitchValue": "{18033B38-BF55-4914-8E9F-BCBDEE28812F}",
        "Media": [
         {
          "Id": "83103685"
         }
        ]
       }
      ]
     },
     {
      "Id": "3908074552",
      "Name": "freekus_opening_status",
      "ObjectPath": "\\Events\\Default Work Unit\\Dialogue\\freekus_opening_status",
      "GUID": "{85A8DDD0-5C12-42B8-B0EF-2BA0D6ED039C}",
      "DurationType": "OneShot",
      "DurationMin": "14.888896",
      "DurationMax": "15.798417",
      "ExcludedMemoryFiles": [
       {
        "Id": "36692841",
        "Language": "SFX",
        "ShortName": "S_Freekus_GeneralOpening_Mono.wav",
        "Path": "SFX\\S_Freekus_GeneralOpening_Mono_10C4C929.wem"
       },
       {
        "Id": "546483302",
        "Language": "SFX",
        "ShortName": "S_Freekus_FirstOpening_Mono.wav",
        "Path": "SFX\\S_Freekus_FirstOpening_Mono_10C4C929.wem"
       }
      ],
      "DefaultSwitchValue": "{649A6880-97B3-400E-8240-524AB8FEB99E}",
      "SwitchContainers": [
       {
        "SwitchValue": "{B5AC459D-13DD-42F0-8882-C0EBF957DBB5}",
        "Media": [
         {
          "Id": "546483302"
         }
        ]
       },
       {
        "SwitchValue": "{649A6880-97B3-400E-8240-524AB8FEB99E}",
        "Media": [
         {
          "Id": "36692841"
         }
        ]
       }
      ]
     }
    ],
    "SwitchGroups": [
     {
      "Id": "1310233351",
      "Name": "closing_status",
      "ObjectPath": "\\Switches\\Default Work Unit\\closing_status",
      "GUID": "{ADFE4C6C-47DE-472C-A729-A3F437EF8DD7}",
      "Switches": [
       {
        "Id": "668632890",
        "Name": "good",
        "ObjectPath": "\\Switches\\Default Work Unit\\closing_status\\good",
        "GUID": "{CFB10247-AD4B-486F-A009-1247B0E511B5}"
       },
       {
        "Id": "513390134",
        "Name": "bad",
        "ObjectPath": "\\Switches\\Default Work Unit\\closing_status\\bad",
        "GUID": "{228D2BFC-1971-4052-B221-171320AD39A0}"
       }
      ]
     },
     {
      "Id": "1831982039",
      "Name": "opening",
      "ObjectPath": "\\Switches\\Default Work Unit\\opening",
      "GUID": "{E96582F2-300E-4987-A836-4EEADCA8D460}",
      "Switches": [
       {
        "Id": "998496889",
        "Name": "first",
        "ObjectPath": "\\Switches\\Default Work Unit\\opening\\first",
        "GUID": "{B5AC459D-13DD-42F0-8882-C0EBF957DBB5}"
       },
       {
        "Id": "2376466361",
        "Name": "other",
        "ObjectPath": "\\Switches\\Default Work Unit\\opening\\other",
        "GUID": "{649A6880-97B3-400E-8240-524AB8FEB99E}"
       }
      ]
     },
     {
      "Id": "2644002326",
      "Name": "delivery_status",
      "ObjectPath": "\\Switches\\Default Work Unit\\delivery_status",
      "GUID": "{19AF448B-4D79-450F-B40F-545FD1A3980F}",
      "Switches": [
       {
        "Id": "2161557176",
        "Name": "perfect",
        "ObjectPath": "\\Switches\\Default Work Unit\\delivery_status\\perfect",
        "GUID": "{28AC777C-77F1-40EF-80B0-214A55E1C432}"
       },
       {
        "Id": "1961009801",
        "Name": "poor",
        "ObjectPath": "\\Switches\\Default Work Unit\\delivery_status\\poor",
        "GUID": "{9260F016-03E3-4C86-BB55-039FEA268312}"
       }
      ]
     },
     {
      "Id": "4201395053",
      "Name": "bar_status",
      "ObjectPath": "\\Switches\\Default Work Unit\\bar_status",
      "GUID": "{50D49997-7B43-4289-A6AB-9C5A5C07828D}",
      "Switches": [
       {
        "Id": "1427264549",
        "Name": "happy",
        "ObjectPath": "\\Switches\\Default Work Unit\\bar_status\\happy",
        "GUID": "{315005F3-246E-4EC7-BC83-8CC531B81E71}"
       },
       {
        "Id": "2684142446",
        "Name": "upset",
        "ObjectPath": "\\Switches\\Default Work Unit\\bar_status\\upset",
        "GUID": "{18033B38-BF55-4914-8E9F-BCBDEE28812F}"
       }
      ]
     }
    ]
   }
  ]
 }
}