{
 "SoundBanksInfo": {
  "Platform": "Mac",
  "BasePlatform": "Mac",
  "SchemaVersion": "12",
  "SoundbankVersion": "135",
  "RootPaths": {
   "ProjectRoot": "F:\\Unreal Projects\\Overdrinked\\Overdrinked_WwiseProject\\",
   "SourceFilesRoot": "F:\\Unreal Projects\\Overdrinked\\Overdrinked_WwiseProject\\.cache\\Mac\\",
   "SoundBanksRoot": "F:\\Unreal Projects\\Overdrinked\\Overdrinked_WwiseProject\\GeneratedSoundBanks\\Mac\\",
   "ExternalSourcesInputFile": "",
   "ExternalSourcesOutputRoot": "F:\\Unreal Projects\\Overdrinked\\Overdrinked_WwiseProject\\GeneratedSoundBanks\\Mac"
  },
  "SoundBanks": [
   {
    "Id": "2666798377",
    "GUID": "{9EF41D29-1D29-1D29-2929-292929292929}",
    "Language": "SFX",
    "ObjectPath": "\\SoundBanks\\Default Work Unit\\SB_63F9FC753B4C629687611888BD91540B",
    "ShortName": "SB_63F9FC753B4C629687611888BD91540B",
    "Path": "SB_63F9FC753B4C629687611888BD91540B.bnk",
    "IncludedEvents": [
     {
      "Id": "1193293993",
      "Name": "play_music_cycle1",
      "ObjectPath": "\\Events\\Default Work Unit\\Music\\play_music_cycle1",
      "GUID": "{681E1178-C515-4A86-BACC-1C3BA44A695D}",
      "DurationType": "OneShot",
      "DurationMin": "336.366547",
      "DurationMax": "336.366547",
      "ExcludedMemoryFiles": [
       {
        "Id": "9226925",
        "Language": "SFX",
        "ShortName": "Cycle_1_Level_1_IntroB_132.wav",
        "Path": "SFX\\Cycle_1_Level_1_IntroB_132_D79FB2B7.wem"
       },
       {
        "Id": "56214316",
        "Language": "SFX",
        "ShortName": "Cycle_1_Level_1_BreakdownA_132.wav",
        "Path": "SFX\\Cycle_1_Level_1_BreakdownA_132_D79FB2B7.wem"
       },
       {
        "Id": "209752508",
        "Language": "SFX",
        "ShortName": "Cycle_1_Level_1_SectionB_132.wav",
        "Path": "SFX\\Cycle_1_Level_1_SectionB_132_D79FB2B7.wem"
       },
       {
        "Id": "413096663",
        "Language": "SFX",
        "ShortName": "Cycle_1_Level_1_SectionA1_132.wav",
        "Path": "SFX\\Cycle_1_Level_1_SectionA1_132_D79FB2B7.wem"
       },
       {
        "Id": "632673041",
        "Language": "SFX",
        "ShortName": "Cycle_1_Level_1_SectionA2_132.wav",
        "Path": "SFX\\Cycle_1_Level_1_SectionA2_132_D79FB2B7.wem"
       },
       {
        "Id": "677249174",
        "Language": "SFX",
        "ShortName": "Cycle_1_Level_1_IntroA_132.wav",
        "Path": "SFX\\Cycle_1_Level_1_IntroA_132_D79FB2B7.wem"
       },
       {
        "Id": "915290534",
        "Language": "SFX",
        "ShortName": "Cycle_1_Level_1_SectionC_132.wav",
        "Path": "SFX\\Cycle_1_Level_1_SectionC_132_D79FB2B7.wem"
       },
       {
        "Id": "1042580314",
        "Language": "SFX",
        "ShortName": "Cycle_1_Level_1_BreakdownB_132.wav",
        "Path": "SFX\\Cycle_1_Level_1_BreakdownB_132_D79FB2B7.wem"
       }
      ]
     },
     {
      "Id": "1699343283",
      "Name": "play_music_menu",
      "ObjectPath": "\\Events\\Default Work Unit\\Music\\play_music_menu",
      "GUID": "{0AA78292-B1BD-40CC-8460-7E53F76E67FE}",
      "DurationType": "Infinite",
      "ExcludedMemoryFiles": [
       {
        "Id": "131360932",
        "Language": "SFX",
        "ShortName": "Main Menu 133 Main B1.wav",
        "Path": "SFX\\Main Menu 133 Main B1_D79FB2B7.wem"
       },
       {
        "Id": "328957443",
        "Language": "SFX",
        "ShortName": "Main Menu 133 Main C.wav",
        "Path": "SFX\\Main Menu 133 Main C_D79FB2B7.wem"
       },
       {
        "Id": "628868267",
        "Language": "SFX",
        "ShortName": "Main Menu 133 Breakdown.wav",
        "Path": "SFX\\Main Menu 133 Breakdown_D79FB2B7.wem"
       },
       {
        "Id": "640674522",
        "Language": "SFX",
        "ShortName": "Main Menu 133 Intro A.wav",
        "Path": "SFX\\Main Menu 133 Intro A_D79FB2B7.wem"
       },
       {
        "Id": "942117408",
        "Language": "SFX",
        "ShortName": "Main Menu 133 Main B2.wav",
        "Path": "SFX\\Main Menu 133 Main B2_D79FB2B7.wem"
       },
       {
        "Id": "946061700",
        "Language": "SFX",
        "ShortName": "Main Menu 133 Main A.wav",
        "Path": "SFX\\Main Menu 133 Main A_D79FB2B7.wem"
       },
       {
        "Id": "1058039109",
        "Language": "SFX",
        "ShortName": "Main Menu 133 Intro B.wav",
        "Path": "SFX\\Main Menu 133 Intro B_D79FB2B7.wem"
       }
      ]
     }
    ]
   }
  ]
 }
}