{
 "SoundBanksInfo": {
  "Platform": "Mac",
  "BasePlatform": "Mac",
  "SchemaVersion": "12",
  "SoundbankVersion": "135",
  "RootPaths": {
   "ProjectRoot": "/Users/isobelflora/Library/Application Support/Wwise2019/Bottles/Wwise2019x64/dosdevices/z:/Volumes/Orico/Overdrinked/Overdrinked_WwiseProject/",
   "SourceFilesRoot": "/Users/isobelflora/Library/Application Support/Wwise2019/Bottles/Wwise2019x64/dosdevices/z:/Volumes/Orico/Overdrinked/Overdrinked_WwiseProject/.cache/Mac/",
   "SoundBanksRoot": "/Users/isobelflora/Library/Application Support/Wwise2019/Bottles/Wwise2019x64/dosdevices/z:/Volumes/Orico/Overdrinked/Overdrinked_WwiseProject/GeneratedSoundBanks/Mac/",
   "ExternalSourcesInputFile": "",
   "ExternalSourcesOutputRoot": "/Users/isobelflora/Library/Application Support/Wwise2019/Bottles/Wwise2019x64/dosdevices/z:/Volumes/Orico/Overdrinked/Overdrinked_WwiseProject/GeneratedSoundBanks/Mac"
  },
  "SoundBanks": [
   {
    "Id": "1551306167",
    "GUID": "{B805E486-284C-4C8A-B7A2-CF2373C06FB9}",
    "Language": "SFX",
    "ObjectPath": "\\SoundBanks\\Default Work Unit\\UI",
    "ShortName": "UI",
    "Path": "UI.bnk",
    "IncludedEvents": [
     {
      "Id": "3063554414",
      "Name": "menu_back",
      "ObjectPath": "\\Events\\Default Work Unit\\UI\\menu_back",
      "GUID": "{384CE58A-D492-4C6A-99F5-21C9DDF4ED8A}",
      "DurationType": "OneShot",
      "DurationMin": "2.885601",
      "DurationMax": "2.885601",
      "IncludedMemoryFiles": [
       {
        "Id": "601881654",
        "Language": "SFX",
        "ShortName": "S_Menu_Back_Stereo.wav",
        "Path": "SFX/S_Menu_Back_Stereo_10C4C929.wem"
       }
      ]
     },
     {
      "Id": "4238832851",
      "Name": "menu_error",
      "ObjectPath": "\\Events\\Default Work Unit\\UI\\menu_error",
      "GUID": "{9C30956C-CE1C-46BA-9B5C-DF192690BA88}",
      "DurationType": "OneShot",
      "DurationMin": "0.773492",
      "DurationMax": "0.773492",
      "IncludedMemoryFiles": [
       {
        "Id": "1011141879",
        "Language": "SFX",
        "ShortName": "S_Menu_Error_Stereo.wav",
        "Path": "SFX/S_Menu_Error_Stereo_10C4C929.wem"
       }
      ]
     },
     {
      "Id": "29030485",
      "Name": "menu_highlight",
      "ObjectPath": "\\Events\\Default Work Unit\\UI\\menu_highlight",
      "GUID": "{F154579E-0386-4143-8C71-2FC4D5D69B26}",
      "DurationType": "OneShot",
      "DurationMin": "0.048005",
      "DurationMax": "0.048005",
      "IncludedMemoryFiles": [
       {
        "Id": "353142835",
        "Language": "SFX",
        "ShortName": "S_Menu_Highlight_Stereo.wav",
        "Path": "SFX/S_Menu_Highlight_Stereo_10C4C929.wem"
       }
      ]
     },
     {
      "Id": "4203375351",
      "Name": "menu_select",
      "ObjectPath": "\\Events\\Default Work Unit\\UI\\menu_select",
      "GUID": "{8027A326-6B47-4989-A243-49FC9B80A08F}",
      "DurationType": "OneShot",
      "DurationMin": "1.883469",
      "DurationMax": "1.883469",
      "IncludedMemoryFiles": [
       {
        "Id": "247873130",
        "Language": "SFX",
        "ShortName": "S_Menu_Select_Stereo.wav",
        "Path": "SFX/S_Menu_Select_Stereo_10C4C929.wem"
       }
      ]
     },
     {
      "Id": "3235006855",
      "Name": "menu_select_transition",
      "ObjectPath": "\\Events\\Default Work Unit\\UI\\menu_select_transition",
      "GUID": "{46CCE590-0042-4234-979F-4BB63265DEED}",
      "DurationType": "OneShot",
      "DurationMin": "4.055193",
      "DurationMax": "4.055193",
      "IncludedMemoryFiles": [
       {
        "Id": "869168388",
        "Language": "SFX",
        "ShortName": "S_Menu_TransitionwithChime_Stereo.wav",
        "Path": "SFX/S_Menu_TransitionwithChime_Stereo_10C4C929.wem"
       }
      ]
     },
     {
      "Id": "747534030",
      "Name": "menu_transition",
      "ObjectPath": "\\Events\\Default Work Unit\\UI\\menu_transition",
      "GUID": "{B458AEAE-CEDB-4145-AD3C-E168316D3C6D}",
      "DurationType": "OneShot",
      "DurationMin": "1.502517",
      "DurationMax": "1.502517",
      "IncludedMemoryFiles": [
       {
        "Id": "526086481",
        "Language": "SFX",
        "ShortName": "S_Menu_Transition_Stereo.wav",
        "Path": "SFX/S_Menu_Transition_Stereo_10C4C929.wem"
       }
      ]
     }
    ]
   }
  ]
 }
}